<?xml version="1.0" standalone="no"?>
<svg xmlns="http://www.w3.org/2000/svg" viewBox="0 0 1440 320" height="441.041">
  <path fill="#6A1B9A" fill-opacity="1" d="M0,64L48,96C96,128,192,192,288,218.7C384,245,480,235,576,208C672,181,768,139,864,144C960,149,1056,203,1152,208C1248,213,1344,171,1392,149.3L1440,128L1440,0L1392,0C1344,0,1248,0,1152,0C1056,0,960,0,864,0C768,0,672,0,576,0C480,0,384,0,288,0C192,0,96,0,48,0L0,0Z"></path>
</svg>
